/Users/remcollier/Git/gitlab/mams-ucd/examples/hypermats/hypermats-traffic-core/src/main/java/hypermats/core/model/Action.java
/Users/remcollier/Git/gitlab/mams-ucd/examples/hypermats/hypermats-traffic-core/src/main/java/hypermats/core/model/AgentDescription.java
/Users/remcollier/Git/gitlab/mams-ucd/examples/hypermats/hypermats-traffic-core/src/main/java/hypermats/core/model/VehicleType.java
/Users/remcollier/Git/gitlab/mams-ucd/examples/hypermats/hypermats-traffic-core/src/main/java/hypermats/core/model/Agent.java
/Users/remcollier/Git/gitlab/mams-ucd/examples/hypermats/hypermats-traffic-core/src/main/java/hypermats/core/model/Iteration.java
/Users/remcollier/Git/gitlab/mams-ucd/examples/hypermats/hypermats-traffic-core/src/main/java/hypermats/core/model/Link.java
/Users/remcollier/Git/gitlab/mams-ucd/examples/hypermats/hypermats-traffic-core/src/main/java/hypermats/core/model/BasicState.java
